name: Campaigns
description: |-

  API endpoints for managing campaigns
endpoints:
  -
    httpMethods:
      - GET
    uri: api/v1/campaigns
    metadata:
      groupName: Campaigns
      groupDescription: |-

        API endpoints for managing campaigns
      subgroup: ''
      subgroupDescription: ''
      title: 'List all campaigns'
      description: 'Get a paginated list of all campaigns for the authenticated user.'
      authenticated: true
      deprecated: false
      custom: []
    headers:
      X-API-Key: your_api_key_here
      Content-Type: application/json
      Accept: application/json
    urlParameters: []
    cleanUrlParameters: []
    queryParameters:
      page:
        name: page
        description: 'Page number for pagination.'
        required: false
        example: 1
        type: integer
        enumValues: []
        exampleWasSpecified: true
        nullable: false
        custom: []
      per_page:
        name: per_page
        description: 'Number of items per page (max 100).'
        required: false
        example: 15
        type: integer
        enumValues: []
        exampleWasSpecified: true
        nullable: false
        custom: []
      status:
        name: status
        description: 'Filter by status (active, paused, completed).'
        required: false
        example: active
        type: string
        enumValues: []
        exampleWasSpecified: true
        nullable: false
        custom: []
      platform:
        name: platform
        description: 'Filter by platform (reddit, facebook, etc).'
        required: false
        example: reddit
        type: string
        enumValues: []
        exampleWasSpecified: true
        nullable: false
        custom: []
    cleanQueryParameters:
      page: 1
      per_page: 15
      status: active
      platform: reddit
    bodyParameters: []
    cleanBodyParameters: []
    fileParameters: []
    responses:
      -
        status: 200
        content: |-
          {
            "success": true,
            "data": {
              "campaigns": [
                {
                  "id": 1,
                  "name": "Web Development Services",
                  "offering": "Custom web development",
                  "website_url": "https://example.com",
                  "platforms": ["reddit", "facebook"],
                  "status": "active",
                  "keywords": ["web development", "website"],
                  "strong_matches_count": 15,
                  "partial_matches_count": 8,
                  "new_leads_count": 5,
                  "last_sync_at": "2025-01-15T10:30:00.000000Z",
                  "next_sync_at": "2025-01-15T11:30:00.000000Z",
                  "created_at": "2025-01-01T00:00:00.000000Z",
                  "updated_at": "2025-01-15T10:30:00.000000Z"
                }
              ],
              "pagination": {
                "current_page": 1,
                "per_page": 15,
                "total": 25,
                "last_page": 2
              }
            }
          }
        headers: []
        description: ''
        custom: []
    responseFields: []
    auth:
      - headers
      - X-API-Key
      - 6g43cv8PD1aE5beadkZfhV6
    controller: null
    method: null
    route: null
    custom: []
  -
    httpMethods:
      - GET
    uri: 'api/v1/campaigns/{id}'
    metadata:
      groupName: Campaigns
      groupDescription: |-

        API endpoints for managing campaigns
      subgroup: ''
      subgroupDescription: ''
      title: 'Get a single campaign'
      description: 'Retrieve detailed information about a specific campaign including all settings, matches, and sync history.'
      authenticated: true
      deprecated: false
      custom: []
    headers:
      X-API-Key: your_api_key_here
      Content-Type: application/json
      Accept: application/json
    urlParameters:
      id:
        name: id
        description: 'The campaign ID.'
        required: true
        example: 1
        type: integer
        enumValues: []
        exampleWasSpecified: true
        nullable: false
        custom: []
    cleanUrlParameters:
      id: 1
    queryParameters: []
    cleanQueryParameters: []
    bodyParameters: []
    cleanBodyParameters: []
    fileParameters: []
    responses:
      -
        status: 200
        content: |-
          {
            "success": true,
            "data": {
              "id": 1,
              "name": "Web Development Services",
              "offering": "Custom web development",
              "website_url": "https://example.com",
              "portfolio_path": "/portfolio",
              "platforms": ["reddit", "facebook"],
              "facebook_groups": ["group1", "group2"],
              "keywords": ["web development", "website"],
              "include_keywords": ["need", "looking for"],
              "ai_settings": {
                "tone": "professional",
                "length": "medium"
              },
              "include_call_to_action": true,
              "status": "active",
              "strong_matches_count": 15,
              "partial_matches_count": 8,
              "new_leads_count": 5,
              "last_sync_at": "2025-01-15T10:30:00.000000Z",
              "next_sync_at": "2025-01-15T11:30:00.000000Z",
              "created_at": "2025-01-01T00:00:00.000000Z",
              "updated_at": "2025-01-15T10:30:00.000000Z"
            }
          }
        headers: []
        description: ''
        custom: []
      -
        status: 404
        content: |-
          {
            "success": false,
            "message": "Campaign not found"
          }
        headers: []
        description: ''
        custom: []
    responseFields: []
    auth:
      - headers
      - X-API-Key
      - 6g43cv8PD1aE5beadkZfhV6
    controller: null
    method: null
    route: null
    custom: []
  -
    httpMethods:
      - POST
    uri: api/v1/campaigns
    metadata:
      groupName: Campaigns
      groupDescription: |-

        API endpoints for managing campaigns
      subgroup: ''
      subgroupDescription: ''
      title: 'Create a new campaign'
      description: 'Create a new campaign. You can only create campaigns for social platforms your account is connected with.'
      authenticated: true
      deprecated: false
      custom: []
    headers:
      X-API-Key: your_api_key_here
      Content-Type: application/json
      Accept: application/json
    urlParameters: []
    cleanUrlParameters: []
    queryParameters: []
    cleanQueryParameters: []
    bodyParameters:
      name:
        name: name
        description: 'The campaign name.'
        required: true
        example: 'Web Development Services'
        type: string
        enumValues: []
        exampleWasSpecified: true
        nullable: false
        custom: []
      offering:
        name: offering
        description: "Description of what you're offering."
        required: true
        example: 'Custom web development and design services'
        type: string
        enumValues: []
        exampleWasSpecified: true
        nullable: false
        custom: []
      website_url:
        name: website_url
        description: 'The website URL.'
        required: false
        example: 'https://example.com'
        type: string
        enumValues: []
        exampleWasSpecified: true
        nullable: true
        custom: []
      portfolio_path:
        name: portfolio_path
        description: 'Portfolio path.'
        required: false
        example: /portfolio
        type: string
        enumValues: []
        exampleWasSpecified: true
        nullable: true
        custom: []
      platforms:
        name: platforms
        description: 'Array of platforms (must be connected).'
        required: true
        example:
          - reddit
          - facebook
        type: 'string[]'
        enumValues: []
        exampleWasSpecified: true
        nullable: false
        custom: []
      facebook_groups:
        name: facebook_groups
        description: 'Facebook groups to monitor (required if facebook in platforms).'
        required: false
        example:
          - group1
          - group2
        type: 'string[]'
        enumValues: []
        exampleWasSpecified: true
        nullable: false
        custom: []
      keywords:
        name: keywords
        description: 'Keywords to search for.'
        required: true
        example:
          - 'web development'
          - website
        type: 'string[]'
        enumValues: []
        exampleWasSpecified: true
        nullable: false
        custom: []
      include_keywords:
        name: include_keywords
        description: 'Additional filter keywords.'
        required: false
        example:
          - need
          - 'looking for'
        type: 'string[]'
        enumValues: []
        exampleWasSpecified: true
        nullable: true
        custom: []
      ai_settings:
        name: ai_settings
        description: 'AI generation settings.'
        required: false
        example:
          tone: professional
          length: medium
        type: object
        enumValues: []
        exampleWasSpecified: true
        nullable: true
        custom: []
      include_call_to_action:
        name: include_call_to_action
        description: 'Include call to action.'
        required: false
        example: true
        type: boolean
        enumValues: []
        exampleWasSpecified: true
        nullable: true
        custom: []
      status:
        name: status
        description: 'Campaign status (active, paused).'
        required: false
        example: active
        type: string
        enumValues: []
        exampleWasSpecified: true
        nullable: true
        custom: []
    cleanBodyParameters:
      name: 'Web Development Services'
      offering: 'Custom web development and design services'
      website_url: 'https://example.com'
      portfolio_path: /portfolio
      platforms:
        - reddit
        - facebook
      facebook_groups:
        - group1
        - group2
      keywords:
        - 'web development'
        - website
      include_keywords:
        - need
        - 'looking for'
      ai_settings:
        tone: professional
        length: medium
      include_call_to_action: true
      status: active
    fileParameters: []
    responses:
      -
        status: 201
        content: |-
          {
            "success": true,
            "message": "Campaign created successfully",
            "data": {
              "id": 1,
              "name": "Web Development Services",
              "status": "active",
              "created_at": "2025-01-15T12:00:00.000000Z"
            }
          }
        headers: []
        description: ''
        custom: []
      -
        status: 422
        content: |-
          {
            "success": false,
            "message": "Validation failed",
            "errors": {
              "platforms": ["You are not connected to facebook. Please connect your account first."]
            }
          }
        headers: []
        description: ''
        custom: []
    responseFields: []
    auth:
      - headers
      - X-API-Key
      - 6g43cv8PD1aE5beadkZfhV6
    controller: null
    method: null
    route: null
    custom: []
  -
    httpMethods:
      - PUT
    uri: 'api/v1/campaigns/{id}'
    metadata:
      groupName: Campaigns
      groupDescription: |-

        API endpoints for managing campaigns
      subgroup: ''
      subgroupDescription: ''
      title: 'Update a campaign'
      description: 'Update an existing campaign. Same validation rules as creation apply.'
      authenticated: true
      deprecated: false
      custom: []
    headers:
      X-API-Key: your_api_key_here
      Content-Type: application/json
      Accept: application/json
    urlParameters:
      id:
        name: id
        description: 'The campaign ID.'
        required: true
        example: 1
        type: integer
        enumValues: []
        exampleWasSpecified: true
        nullable: false
        custom: []
    cleanUrlParameters:
      id: 1
    queryParameters: []
    cleanQueryParameters: []
    bodyParameters:
      name:
        name: name
        description: 'The campaign name.'
        required: false
        example: 'Updated Campaign Name'
        type: string
        enumValues: []
        exampleWasSpecified: true
        nullable: false
        custom: []
      offering:
        name: offering
        description: "Description of what you're offering."
        required: false
        example: 'Updated offering description'
        type: string
        enumValues: []
        exampleWasSpecified: true
        nullable: false
        custom: []
      website_url:
        name: website_url
        description: 'The website URL.'
        required: false
        example: 'https://example.com'
        type: string
        enumValues: []
        exampleWasSpecified: true
        nullable: true
        custom: []
      portfolio_path:
        name: portfolio_path
        description: 'Portfolio path.'
        required: false
        example: /portfolio
        type: string
        enumValues: []
        exampleWasSpecified: true
        nullable: true
        custom: []
      platforms:
        name: platforms
        description: 'Array of platforms (must be connected).'
        required: false
        example:
          - reddit
        type: 'string[]'
        enumValues: []
        exampleWasSpecified: true
        nullable: false
        custom: []
      facebook_groups:
        name: facebook_groups
        description: 'Facebook groups to monitor.'
        required: false
        example:
          - group1
        type: 'string[]'
        enumValues: []
        exampleWasSpecified: true
        nullable: false
        custom: []
      keywords:
        name: keywords
        description: 'Keywords to search for.'
        required: false
        example:
          - 'web dev'
          - website
        type: 'string[]'
        enumValues: []
        exampleWasSpecified: true
        nullable: false
        custom: []
      include_keywords:
        name: include_keywords
        description: 'Additional filter keywords.'
        required: false
        example:
          - need
        type: 'string[]'
        enumValues: []
        exampleWasSpecified: true
        nullable: true
        custom: []
      ai_settings:
        name: ai_settings
        description: 'AI generation settings.'
        required: false
        example:
          tone: casual
        type: object
        enumValues: []
        exampleWasSpecified: true
        nullable: true
        custom: []
      include_call_to_action:
        name: include_call_to_action
        description: 'Include call to action.'
        required: false
        example: false
        type: boolean
        enumValues: []
        exampleWasSpecified: true
        nullable: true
        custom: []
      status:
        name: status
        description: 'Campaign status.'
        required: false
        example: paused
        type: string
        enumValues: []
        exampleWasSpecified: true
        nullable: true
        custom: []
    cleanBodyParameters:
      name: 'Updated Campaign Name'
      offering: 'Updated offering description'
      website_url: 'https://example.com'
      portfolio_path: /portfolio
      platforms:
        - reddit
      facebook_groups:
        - group1
      keywords:
        - 'web dev'
        - website
      include_keywords:
        - need
      ai_settings:
        tone: casual
      include_call_to_action: false
      status: paused
    fileParameters: []
    responses:
      -
        status: 200
        content: |-
          {
            "success": true,
            "message": "Campaign updated successfully",
            "data": {
              "id": 1,
              "name": "Updated Campaign Name",
              "updated_at": "2025-01-15T12:30:00.000000Z"
            }
          }
        headers: []
        description: ''
        custom: []
      -
        status: 404
        content: |-
          {
            "success": false,
            "message": "Campaign not found"
          }
        headers: []
        description: ''
        custom: []
    responseFields: []
    auth:
      - headers
      - X-API-Key
      - 6g43cv8PD1aE5beadkZfhV6
    controller: null
    method: null
    route: null
    custom: []
  -
    httpMethods:
      - DELETE
    uri: 'api/v1/campaigns/{id}'
    metadata:
      groupName: Campaigns
      groupDescription: |-

        API endpoints for managing campaigns
      subgroup: ''
      subgroupDescription: ''
      title: 'Delete a campaign'
      description: 'Soft delete a campaign and all its associated data.'
      authenticated: true
      deprecated: false
      custom: []
    headers:
      X-API-Key: your_api_key_here
      Content-Type: application/json
      Accept: application/json
    urlParameters:
      id:
        name: id
        description: 'The campaign ID.'
        required: true
        example: 1
        type: integer
        enumValues: []
        exampleWasSpecified: true
        nullable: false
        custom: []
    cleanUrlParameters:
      id: 1
    queryParameters: []
    cleanQueryParameters: []
    bodyParameters: []
    cleanBodyParameters: []
    fileParameters: []
    responses:
      -
        status: 200
        content: |-
          {
            "success": true,
            "message": "Campaign deleted successfully"
          }
        headers: []
        description: ''
        custom: []
      -
        status: 404
        content: |-
          {
            "success": false,
            "message": "Campaign not found"
          }
        headers: []
        description: ''
        custom: []
    responseFields: []
    auth:
      - headers
      - X-API-Key
      - 6g43cv8PD1aE5beadkZfhV6
    controller: null
    method: null
    route: null
    custom: []
