## Autogenerated by Scribe. DO NOT MODIFY.

name: Leads
description: |-

  API endpoints for managing leads
endpoints:
  -
    httpMethods:
      - GET
    uri: api/v1/leads
    metadata:
      groupName: Leads
      groupDescription: |-

        API endpoints for managing leads
      subgroup: ''
      subgroupDescription: ''
      title: 'List all leads'
      description: 'Get a paginated list of all leads with comprehensive filtering options.'
      authenticated: true
      deprecated: false
      custom: []
    headers:
      X-API-Key: your_api_key_here
      Content-Type: application/json
      Accept: application/json
    urlParameters: []
    cleanUrlParameters: []
    queryParameters:
      page:
        name: page
        description: 'Page number for pagination.'
        required: false
        example: 1
        type: integer
        enumValues: []
        exampleWasSpecified: true
        nullable: false
        custom: []
      per_page:
        name: per_page
        description: 'Number of items per page (max 100).'
        required: false
        example: 15
        type: integer
        enumValues: []
        exampleWasSpecified: true
        nullable: false
        custom: []
      campaign_id:
        name: campaign_id
        description: 'Filter by campaign ID.'
        required: false
        example: 1
        type: integer
        enumValues: []
        exampleWasSpecified: true
        nullable: false
        custom: []
      status:
        name: status
        description: 'Filter by status (new, contacted, closed).'
        required: false
        example: new
        type: string
        enumValues: []
        exampleWasSpecified: true
        nullable: false
        custom: []
      match_type:
        name: match_type
        description: 'Filter by match type (strong, partial).'
        required: false
        example: strong
        type: string
        enumValues: []
        exampleWasSpecified: true
        nullable: false
        custom: []
      platform:
        name: platform
        description: 'Filter by platform (reddit, facebook, etc).'
        required: false
        example: reddit
        type: string
        enumValues: []
        exampleWasSpecified: true
        nullable: false
        custom: []
      min_confidence:
        name: min_confidence
        description: 'Minimum confidence score (0-10).'
        required: false
        example: 7
        type: integer
        enumValues: []
        exampleWasSpecified: true
        nullable: false
        custom: []
      max_confidence:
        name: max_confidence
        description: 'Maximum confidence score (0-10).'
        required: false
        example: 10
        type: integer
        enumValues: []
        exampleWasSpecified: true
        nullable: false
        custom: []
      search:
        name: search
        description: 'Search in title and description.'
        required: false
        example: website
        type: string
        enumValues: []
        exampleWasSpecified: true
        nullable: false
        custom: []
      sort_by:
        name: sort_by
        description: 'Sort by field (created_at, confidence_score, synced_at).'
        required: false
        example: created_at
        type: string
        enumValues: []
        exampleWasSpecified: true
        nullable: false
        custom: []
      sort_order:
        name: sort_order
        description: 'Sort order (asc, desc).'
        required: false
        example: desc
        type: string
        enumValues: []
        exampleWasSpecified: true
        nullable: false
        custom: []
    cleanQueryParameters:
      page: 1
      per_page: 15
      campaign_id: 1
      status: new
      match_type: strong
      platform: reddit
      min_confidence: 7
      max_confidence: 10
      search: website
      sort_by: created_at
      sort_order: desc
    bodyParameters: []
    cleanBodyParameters: []
    fileParameters: []
    responses:
      -
        status: 200
        content: |-
          {
            "success": true,
            "data": {
              "leads": [
                {
                  "id": 1,
                  "campaign_id": 1,
                  "campaign_name": "Web Development Services",
                  "platform": "reddit",
                  "platform_id": "abc123",
                  "title": "Looking for web developer",
                  "description": "Need someone to build a website",
                  "url": "https://reddit.com/r/example/comments/abc123",
                  "author": "john_doe",
                  "subreddit": "webdev",
                  "facebook_group": null,
                  "comments_count": 5,
                  "confidence_score": 8,
                  "match_type": "strong",
                  "status": "new",
                  "matched_keywords": ["website", "web developer"],
                  "synced_at": "2025-01-15T10:30:00.000000Z",
                  "contacted_at": null,
                  "created_at": "2025-01-15T10:30:00.000000Z",
                  "updated_at": "2025-01-15T10:30:00.000000Z"
                }
              ],
              "pagination": {
                "current_page": 1,
                "per_page": 15,
                "total": 150,
                "last_page": 10
              }
            }
          }
        headers: []
        description: ''
        custom: []
    responseFields: []
    auth:
      - headers
      - X-API-Key
      - 6g43cv8PD1aE5beadkZfhV6
    controller: null
    method: null
    route: null
    custom: []
  -
    httpMethods:
      - GET
    uri: 'api/v1/leads/{id}'
    metadata:
      groupName: Leads
      groupDescription: |-

        API endpoints for managing leads
      subgroup: ''
      subgroupDescription: ''
      title: 'Get a single lead'
      description: 'Retrieve detailed information about a specific lead including AI generations and campaign details.'
      authenticated: true
      deprecated: false
      custom: []
    headers:
      X-API-Key: your_api_key_here
      Content-Type: application/json
      Accept: application/json
    urlParameters:
      id:
        name: id
        description: 'The lead ID.'
        required: true
        example: 1
        type: integer
        enumValues: []
        exampleWasSpecified: true
        nullable: false
        custom: []
    cleanUrlParameters:
      id: 1
    queryParameters: []
    cleanQueryParameters: []
    bodyParameters: []
    cleanBodyParameters: []
    fileParameters: []
    responses:
      -
        status: 200
        content: |-
          {
            "success": true,
            "data": {
              "id": 1,
              "campaign": {
                "id": 1,
                "name": "Web Development Services",
                "offering": "Custom web development"
              },
              "platform": "reddit",
              "platform_id": "abc123",
              "title": "Looking for web developer",
              "description": "Need someone to build a website for my startup",
              "url": "https://reddit.com/r/example/comments/abc123",
              "author": "john_doe",
              "subreddit": "webdev",
              "facebook_group": null,
              "comments_count": 5,
              "confidence_score": 8,
              "match_type": "strong",
              "status": "new",
              "matched_keywords": ["website", "web developer"],
              "ai_generations": [
                {
                  "id": 1,
                  "generated_message": "Hi! I'd love to help with your project...",
                  "created_at": "2025-01-15T10:35:00.000000Z"
                }
              ],
              "synced_at": "2025-01-15T10:30:00.000000Z",
              "contacted_at": null,
              "created_at": "2025-01-15T10:30:00.000000Z",
              "updated_at": "2025-01-15T10:30:00.000000Z"
            }
          }
        headers: []
        description: ''
        custom: []
      -
        status: 404
        content: |-
          {
            "success": false,
            "message": "Lead not found"
          }
        headers: []
        description: ''
        custom: []
    responseFields: []
    auth:
      - headers
      - X-API-Key
      - 6g43cv8PD1aE5beadkZfhV6
    controller: null
    method: null
    route: null
    custom: []
  -
    httpMethods:
      - DELETE
    uri: 'api/v1/leads/{id}'
    metadata:
      groupName: Leads
      groupDescription: |-

        API endpoints for managing leads
      subgroup: ''
      subgroupDescription: ''
      title: 'Delete a lead'
      description: 'Permanently delete a lead from your account.'
      authenticated: true
      deprecated: false
      custom: []
    headers:
      X-API-Key: your_api_key_here
      Content-Type: application/json
      Accept: application/json
    urlParameters:
      id:
        name: id
        description: 'The lead ID.'
        required: true
        example: 1
        type: integer
        enumValues: []
        exampleWasSpecified: true
        nullable: false
        custom: []
    cleanUrlParameters:
      id: 1
    queryParameters: []
    cleanQueryParameters: []
    bodyParameters: []
    cleanBodyParameters: []
    fileParameters: []
    responses:
      -
        status: 200
        content: |-
          {
            "success": true,
            "message": "Lead deleted successfully"
          }
        headers: []
        description: ''
        custom: []
      -
        status: 404
        content: |-
          {
            "success": false,
            "message": "Lead not found"
          }
        headers: []
        description: ''
        custom: []
    responseFields: []
    auth:
      - headers
      - X-API-Key
      - 6g43cv8PD1aE5beadkZfhV6
    controller: null
    method: null
    route: null
    custom: []
  -
    httpMethods:
      - POST
    uri: api/v1/leads/bulk-delete
    metadata:
      groupName: Leads
      groupDescription: |-

        API endpoints for managing leads
      subgroup: ''
      subgroupDescription: ''
      title: 'Bulk delete leads'
      description: 'Delete multiple leads at once by providing an array of lead IDs.'
      authenticated: true
      deprecated: false
      custom: []
    headers:
      X-API-Key: your_api_key_here
      Content-Type: application/json
      Accept: application/json
    urlParameters: []
    cleanUrlParameters: []
    queryParameters: []
    cleanQueryParameters: []
    bodyParameters:
      lead_ids:
        name: lead_ids
        description: 'Array of lead IDs to delete.'
        required: true
        example:
          - 1
          - 2
          - 3
        type: 'string[]'
        enumValues: []
        exampleWasSpecified: true
        nullable: false
        custom: []
    cleanBodyParameters:
      lead_ids:
        - 1
        - 2
        - 3
    fileParameters: []
    responses:
      -
        status: 200
        content: |-
          {
            "success": true,
            "message": "Successfully deleted 3 leads"
          }
        headers: []
        description: ''
        custom: []
      -
        status: 422
        content: |-
          {
            "success": false,
            "message": "Validation failed",
            "errors": {
              "lead_ids": ["The lead ids field is required."]
            }
          }
        headers: []
        description: ''
        custom: []
    responseFields: []
    auth:
      - headers
      - X-API-Key
      - 6g43cv8PD1aE5beadkZfhV6
    controller: null
    method: null
    route: null
    custom: []
  -
    httpMethods:
      - PATCH
    uri: 'api/v1/leads/{id}/status'
    metadata:
      groupName: Leads
      groupDescription: |-

        API endpoints for managing leads
      subgroup: ''
      subgroupDescription: ''
      title: 'Update lead status'
      description: 'Update the status of a lead (new, contacted, closed).'
      authenticated: true
      deprecated: false
      custom: []
    headers:
      X-API-Key: your_api_key_here
      Content-Type: application/json
      Accept: application/json
    urlParameters:
      id:
        name: id
        description: 'The lead ID.'
        required: true
        example: 1
        type: integer
        enumValues: []
        exampleWasSpecified: true
        nullable: false
        custom: []
    cleanUrlParameters:
      id: 1
    queryParameters: []
    cleanQueryParameters: []
    bodyParameters:
      status:
        name: status
        description: 'The new status.'
        required: true
        example: contacted
        type: string
        enumValues: []
        exampleWasSpecified: true
        nullable: false
        custom: []
    cleanBodyParameters:
      status: contacted
    fileParameters: []
    responses:
      -
        status: 200
        content: |-
          {
            "success": true,
            "message": "Lead status updated successfully",
            "data": {
              "id": 1,
              "status": "contacted",
              "contacted_at": "2025-01-15T12:00:00.000000Z"
            }
          }
        headers: []
        description: ''
        custom: []
      -
        status: 404
        content: |-
          {
            "success": false,
            "message": "Lead not found"
          }
        headers: []
        description: ''
        custom: []
    responseFields: []
    auth:
      - headers
      - X-API-Key
      - 6g43cv8PD1aE5beadkZfhV6
    controller: null
    method: null
    route: null
    custom: []
